<?xml version='1.0' encoding='UTF-8'?>
<!-- Created with Inkscape (http://www.inkscape.org/) and export_objects.py -->
<svg xmlns:cc="http://creativecommons.org/ns#" xmlns:dc="http://purl.org/dc/elements/1.1/" xmlns:inkscape="http://www.inkscape.org/namespaces/inkscape" xmlns:rdf="http://www.w3.org/1999/02/22-rdf-syntax-ns#" xmlns:sodipodi="http://sodipodi.sourceforge.net/DTD/sodipodi-0.dtd" xmlns:xlink="http://www.w3.org/1999/xlink" xmlns="http://www.w3.org/2000/svg" version="1.1" id="svg1" width="16" height="16" viewBox="0 0 16 16">
<sodipodi:namedview 
    objecttolerance="10" 
    gridtolerance="10" 
    guidetolerance="10" 
    id="namedview" 
    showgrid="true" 
    inkscape:zoom="27.166187"
    inkscape:cx="7.4837792"
    inkscape:cy="8.9906751"
    inkscape:window-x="0" 
    inkscape:window-y="27"> 
    <inkscape:grid type="xygrid" id="grid"/>
  </sodipodi:namedview>
  <metadata
     id="metadata1906">
    <rdf:RDF>
      <cc:Work
         rdf:about="">
        <dc:format>image/svg+xml</dc:format>
        <dc:type
           rdf:resource="http://purl.org/dc/dcmitype/StillImage" />
        <cc:license
           rdf:resource="http://creativecommons.org/publicdomain/zero/1.0/" />
        <dc:title>LiveEffect Icons proposal</dc:title>
        <dc:date>13 Jan 2019</dc:date>
        <dc:creator>
          <cc:Agent>
            <dc:title>Ramón Miranda</dc:title>
          </cc:Agent>
        </dc:creator>
        <dc:rights>
          <cc:Agent>
            <dc:title>see the license tab</dc:title>
          </cc:Agent>
        </dc:rights>
        <dc:subject>
          <rdf:Bag>
            <rdf:li>icon ui</rdf:li>
          </rdf:Bag>
        </dc:subject>
        <dc:description>This is a contribution with Inkscape Project from
Ramon Miranda www.ramonmiranda.com (design and SVG file)
Jabiertxo (SVG stuff to integrate them in UI)</dc:description>
        <dc:publisher>
          <cc:Agent>
            <dc:title></dc:title>
          </cc:Agent>
        </dc:publisher>
        <dc:identifier></dc:identifier>
        <dc:source />
        <dc:relation />
        <dc:language>-</dc:language>
        <dc:coverage />
        <dc:contributor>
          <cc:Agent>
            <dc:title>Ramon Miranda
Jabier Arraiza</dc:title>
          </cc:Agent>
        </dc:contributor>
      </cc:Work>
      <cc:License
         rdf:about="http://creativecommons.org/publicdomain/zero/1.0/">
        <cc:permits
           rdf:resource="http://creativecommons.org/ns#Reproduction" />
        <cc:permits
           rdf:resource="http://creativecommons.org/ns#Distribution" />
        <cc:permits
           rdf:resource="http://creativecommons.org/ns#DerivativeWorks" />
      </cc:License>
    </rdf:RDF>
  </metadata>
  <g inkscape:groupmode="layer"
     id="layercompo"
     inkscape:label="measure-segments">
        <path 
            id="rect22048" 
            d="M 0,0 H 16 V 16 H 0 Z" 
            style="opacity:0;fill:none" />
        <path inkscape:connector-curvature="0" d="m 8.1576624,1.9840153 c -0.061908,4.09e-5 -0.109248,0.024638 -0.1420175,0.073745 -0.032466,0.048867 -0.048731,0.119929 -0.048731,0.2131766 6.53e-5,0.093005 0.016309,0.1640344 0.048992,0.2131043 0.032835,0.04882 0.08024,0.073198 0.1421697,0.073151 0.061908,-3.9e-5 0.1091171,-0.02447 0.1416478,-0.073337 0.032702,-0.049117 0.049062,-0.1201757 0.049062,-0.213178 -6.5e-5,-0.093248 -0.016527,-0.1642797 -0.049322,-0.2131025 -0.032599,-0.049071 -0.079892,-0.073597 -0.141801,-0.073559 z M 7.6750941,1.98445 c -0.054755,3.73e-5 -0.097919,0.012876 -0.1294707,0.038563 -0.031291,0.025678 -0.046926,0.0606 -0.046926,0.1047578 2.17e-5,0.031578 0.00891,0.058314 0.026681,0.080258 0.018049,0.021943 0.043077,0.036863 0.075152,0.044742 -0.036009,0.00846 -0.064104,0.024852 -0.084329,0.049284 -0.020223,0.024433 -0.03027,0.054273 -0.03027,0.089549 4.34e-5,0.05353 0.016309,0.094591 0.048927,0.1231862 0.032813,0.028595 0.079675,0.042893 0.1406042,0.042846 0.06093,-3.99e-5 0.1077037,-0.014399 0.1402562,-0.043032 0.032748,-0.028642 0.049122,-0.069723 0.049122,-0.1232606 -2.17e-5,-0.035275 -0.010225,-0.065106 -0.030399,-0.089511 -0.020006,-0.024406 -0.048014,-0.040812 -0.084044,-0.049173 0.031813,-0.0079 0.056602,-0.022844 0.074347,-0.044817 0.018049,-0.021971 0.026963,-0.048718 0.026963,-0.080295 -2.2e-5,-0.044156 -0.015658,-0.079086 -0.047057,-0.1047197 C 7.7732955,1.997187 7.7301091,1.984413 7.6750941,1.98445 Z m -1.2063123,8.697e-4 c -0.054776,3.53e-5 -0.097918,0.012914 -0.1294705,0.038591 -0.031291,0.025678 -0.046926,0.060563 -0.046926,0.1047204 2.17e-5,0.031578 0.00891,0.058351 0.026681,0.080296 0.018048,0.021943 0.043077,0.036863 0.075152,0.044732 -0.036009,0.00846 -0.064126,0.024814 -0.084327,0.049256 -0.020223,0.024433 -0.03027,0.05431 -0.03027,0.089585 4.36e-5,0.05353 0.016309,0.094589 0.048926,0.1231844 0.032814,0.028595 0.079718,0.042846 0.1406477,0.042809 0.06093,-4.19e-5 0.1076605,-0.014354 0.1401909,-0.042995 0.03277,-0.028642 0.049144,-0.069723 0.049144,-0.1232588 -2.17e-5,-0.035275 -0.010225,-0.065143 -0.030422,-0.089549 -0.020006,-0.024405 -0.047992,-0.040774 -0.084023,-0.049145 0.031813,-0.0079 0.056581,-0.022845 0.074347,-0.044807 0.018048,-0.021971 0.026963,-0.048755 0.026963,-0.080332 -2.17e-5,-0.044157 -0.015657,-0.07905 -0.047057,-0.1046841 -0.031357,-0.025641 -0.074543,-0.038443 -0.1295576,-0.038405 z m 0.6024277,0.00962 -0.094004,3.71e-5 -0.2295199,0.3502379 v 0.072157 l 0.249395,-1.886e-4 v 0.1302532 l 0.074368,-3.71e-5 V 2.4171414 l 0.078826,-7.34e-5 v -0.06217 l -0.078826,7.43e-5 z m -1.0356563,6.521e-4 -0.07476,3.72e-5 -0.1321017,0.026755 V 2.090472 L 5.9614892,2.063716 v 0.4214716 l -0.122099,7.34e-5 2.18e-5,0.062941 0.3182401,-2.175e-4 v -0.062904 l -0.1221207,7.44e-5 z m 2.1221092,0.047808 c 0.038728,-2.61e-5 0.067736,0.018961 0.087003,0.056949 0.01957,0.037728 0.029334,0.09457 0.029334,0.1705496 4.36e-5,0.075734 -0.00957,0.1326214 -0.029116,0.1706229 -0.019137,0.037756 -0.048187,0.056633 -0.086915,0.056652 -0.038489,2.6e-5 -0.067497,-0.018813 -0.087003,-0.05654 -0.019353,-0.037978 -0.028986,-0.094853 -0.028986,-0.1705866 -4.35e-5,-0.075975 0.00957,-0.1328305 0.028769,-0.1705859 0.019571,-0.038006 0.048426,-0.057033 0.086915,-0.05706 z m -0.4825248,4.348e-4 c 0.032075,-2.14e-5 0.057124,0.00799 0.075152,0.023978 0.018265,0.016026 0.027421,0.03836 0.027421,0.066973 2.18e-5,0.028614 -0.00914,0.050929 -0.027355,0.066973 -0.018049,0.016044 -0.04299,0.024099 -0.075064,0.024126 -0.032313,1.96e-5 -0.057516,-0.00799 -0.075521,-0.024015 -0.017831,-0.016026 -0.026681,-0.038322 -0.026681,-0.066946 -2.17e-5,-0.028614 0.00891,-0.050966 0.026594,-0.06701 0.018048,-0.016044 0.043142,-0.024062 0.075456,-0.024089 z M 6.4688253,2.044701 c 0.032053,-2.14e-5 0.057124,0.00799 0.075152,0.024015 0.018265,0.016026 0.027421,0.038322 0.027421,0.066936 2.18e-5,0.028614 -0.00914,0.050966 -0.027355,0.06701 -0.018048,0.016044 -0.043011,0.024062 -0.075064,0.02409 -0.032335,2.14e-5 -0.057516,-0.00799 -0.075542,-0.023978 -0.017831,-0.016026 -0.026681,-0.03836 -0.026681,-0.066973 0,-0.028614 0.00891,-0.050929 0.026616,-0.066973 0.018048,-0.016044 0.04312,-0.024099 0.075456,-0.024126 z m 0.5280811,0.015571 1.739e-4,0.2949184 -0.1887261,1.115e-4 z M 9.6767351,2.1214 c -0.032079,1.96e-5 -0.05995,0.00734 -0.08363,0.021869 -0.023662,0.014566 -0.044017,0.03717 -0.061018,0.067753 C 9.5218741,2.181915 9.5062781,2.159731 9.4850511,2.144448 9.4639621,2.129156 9.4385161,2.12152 9.4084161,2.121548 c -0.029859,1.95e-5 -0.055602,0.00613 -0.077304,0.018199 -0.021748,0.012115 -0.040319,0.030862 -0.055843,0.056281 V 2.131637 l -0.06845,3.62e-5 v 0.4144406 l 0.06845,-3.61e-5 -1.747e-4,-0.2342321 c -4.27e-5,-0.040208 0.010213,-0.072055 0.030639,-0.095507 0.020439,-0.02369 0.048096,-0.035535 0.082869,-0.035564 0.029357,-1.94e-5 0.051059,0.00959 0.065124,0.028827 0.01413,0.01898 0.021089,0.04844 0.021089,0.088406 l 1.514e-4,0.247924 0.06845,-3.72e-5 -1.525e-4,-0.2342321 c -2.13e-5,-0.040459 0.010214,-0.072389 0.030639,-0.095839 0.020439,-0.023449 0.048337,-0.035201 0.08363,-0.035229 0.028855,-1.95e-5 0.050298,0.00958 0.064391,0.028827 0.01413,0.019222 0.021089,0.048718 0.021089,0.088434 l 1.524e-4,0.2479249 0.06845,-3.63e-5 -1.523e-4,-0.2501462 c -4.43e-5,-0.05575 -0.011744,-0.098689 -0.035229,-0.1287719 -0.02344,-0.030324 -0.056772,-0.045466 -0.09994,-0.045439 z m -0.7385963,4.34e-4 c -0.03207,2.14e-5 -0.05995,0.00734 -0.08363,0.021907 C 8.8308468,2.158308 8.8105198,2.180883 8.7935368,2.211458 8.7833228,2.182351 8.7676828,2.160167 8.7464538,2.144884 8.7255788,2.129592 8.6999658,2.121993 8.6698658,2.122021 c -0.029859,1.95e-5 -0.055649,0.00604 -0.07735,0.018181 -0.021748,0.012115 -0.040319,0.030862 -0.055843,0.056281 V 2.132102 l -0.06845,3.72e-5 V 2.546578 l 0.06845,-3.72e-5 -1.737e-4,-0.234232 c -2.13e-5,-0.040208 0.010213,-0.072055 0.030686,-0.095507 0.020439,-0.02369 0.048058,-0.035535 0.08285,-0.035562 0.029357,-1.96e-5 0.051078,0.00958 0.065152,0.028827 0.014131,0.01898 0.021089,0.048439 0.021089,0.088406 l 1.723e-4,0.2479214 0.068478,-3.72e-5 -1.952e-4,-0.2342321 c -2.23e-5,-0.040459 0.010214,-0.072389 0.030639,-0.09584 0.020439,-0.023449 0.048365,-0.035201 0.08363,-0.035229 0.028855,-2.05e-5 0.050315,0.00958 0.064391,0.028827 0.01413,0.019249 0.021089,0.048718 0.021089,0.088443 l 1.951e-4,0.247923 0.06845,-3.72e-5 -1.95e-4,-0.2501434 C 9.0729081,2.2403172 9.0611876,2.1973751 9.037702,2.1672952 9.0142628,2.1369721 8.9809295,2.121829 8.9377607,2.1218569 Z m 5.5251172,0.1555626 -0.07161,3.71e-5 V 3.0384851 L 1.2305474,3.0472179 V 2.2861653 l -0.071585,3.72e-5 V 3.0472913 L 0.67069728,3.0475087 1.0082037,3.4003367 0.45829065,3.926454 0.50780443,3.9781825 1.0577175,3.4520651 10.76186,13.595819 9.1128384,12.892197 l -0.028094,0.06587 1.6488926,0.703549 -10.0312997,0.0096 v -0.761089 l -0.0715845,7.2e-5 v 0.985184 l 0.0358151,-3.8e-5 v 0.224132 L 11.872497,14.108821 1.7187504,3.4950829 l 12.4826076,-0.00827 -0.07996,10.5024295 0.224084,0.0018 v 0.03582 l 0.985143,0.0075 v -0.07164 l -0.761059,-0.0057 0.08115,-10.6568116 0.761059,0.00576 v -0.0716 l -0.76108,-0.00576 0.0021,-0.1901983 -0.19016,1.115e-4 z m -0.608625,0.0025 -3.295216,0.00214 4.3e-5,0.0716 3.295195,-0.00214 z m -6.1793196,0.00493 c 0.035771,-2.22e-5 0.063757,0.00944 0.084001,0.028419 0.02044,0.01898 0.030791,0.045141 0.030791,0.078446 2.18e-5,0.033054 -0.010225,0.059188 -0.030683,0.078446 -0.02044,0.019008 -0.04847,0.028539 -0.08398,0.028567 -0.035532,2.33e-5 -0.063517,-0.00949 -0.084001,-0.028456 -0.020223,-0.01898 -0.030378,-0.045104 -0.030378,-0.078409 -2.17e-5,-0.033306 0.010003,-0.059476 0.03027,-0.078484 0.02044,-0.019008 0.04847,-0.028502 0.08398,-0.02853 z M 6.4689993,2.285698 c 0.035771,-2.42e-5 0.063757,0.00949 0.084001,0.028456 0.02044,0.01898 0.030791,0.045104 0.030791,0.07841 2.18e-5,0.033054 -0.010225,0.059235 -0.030683,0.078484 -0.02044,0.019008 -0.04847,0.028502 -0.084001,0.02853 -0.03551,2.13e-5 -0.063496,-0.00944 -0.084001,-0.028419 -0.020223,-0.01898 -0.030378,-0.045141 -0.030378,-0.078446 -2.16e-5,-0.033306 0.010003,-0.059438 0.03027,-0.078446 0.02044,-0.019008 0.048492,-0.028539 0.084001,-0.028567 z m -1.4062153,1.478e-4 -3.2951947,0.00214 v 0.0716 l 3.2951729,-0.00214 z m 2.297375,0.1676268 -0.078065,7.43e-5 v 0.063648 L 7.251824,2.635606 7.299555,2.6355688 7.360159,2.5171214 Z m 7.975057,1.3890389 -0.01565,2.0431528 0.07161,6.521e-4 0.01565,-2.0431528 z M 0.93274965,4.3155297 0.88101804,4.3649999 2.8835506,6.4582577 2.9353044,6.4087502 Z M 15.326952,6.633286 c -0.05574,-4.347e-4 -0.09874,0.010962 -0.129014,0.034152 -0.03052,0.023207 -0.04596,0.056411 -0.04627,0.099577 0,0.03207 0.0068,0.059987 0.02109,0.083779 0.01435,0.023792 0.03682,0.044324 0.06726,0.061576 -0.02918,0.0099 -0.05151,0.025381 -0.06698,0.046479 -0.01544,0.020856 -0.02329,0.046321 -0.02353,0.076412 -2.18e-4,0.02985 0.0056,0.055685 0.01762,0.07748 0.01196,0.021804 0.03056,0.040588 0.05584,0.056317 l -0.06439,-4.348e-4 v 0.06846 l 0.414442,0.00316 v -0.068459 l -0.23424,-0.00177 c -0.04021,-2.183e-4 -0.07197,-0.010763 -0.09524,-0.03142 -0.02353,-0.020661 -0.03517,-0.048365 -0.0349,-0.083147 2.17e-4,-0.029357 0.01006,-0.050994 0.02938,-0.064901 0.01914,-0.013916 0.04862,-0.020726 0.08859,-0.02042 l 0.247916,0.00195 v -0.06846 l -0.23424,-0.00177 c -0.04044,-2.174e-4 -0.07233,-0.01081 -0.09562,-0.031457 -0.02327,-0.020661 -0.03475,-0.048615 -0.03449,-0.083882 2.18e-4,-0.028865 0.01006,-0.050251 0.02935,-0.064167 0.01935,-0.013916 0.04886,-0.020726 0.08859,-0.02042 l 0.247918,0.00195 v -0.06846 z M 3.651263,6.7771913 3.5967044,6.8293655 c 0.032422,0.00996 0.060517,0.02146 0.084306,0.03456 0.023964,0.013266 0.044034,0.028391 0.060234,0.045327 0.022853,0.023885 0.034661,0.04961 0.035445,0.077192 0,0.027768 -0.00914,0.051793 -0.030378,0.072083 -0.013047,0.012459 -0.029639,0.021683 -0.04984,0.027685 -0.019788,0.00604 -0.047731,0.0097 -0.083697,0.010986 -0.019135,8.697e-4 -0.063452,6.523e-4 -0.1332108,-6.521e-4 -0.069411,-0.00111 -0.1245562,-0.00195 -0.1653718,-0.00214 l -0.045448,0.043476 0.2424802,0.2534749 0.045448,-0.043478 -0.1803106,-0.1884965 c 0.086003,0.00111 0.1526943,0.00177 0.2001422,0.00214 0.047644,1.849e-4 0.076152,4.83e-5 0.085589,-4.348e-4 0.035488,-0.00288 0.063431,-0.00827 0.08385,-0.016202 0.020875,-0.0079 0.03938,-0.019723 0.055776,-0.035415 0.034575,-0.033082 0.050428,-0.071814 0.047579,-0.1161939 -0.00282,-0.044379 -0.024071,-0.087272 -0.063648,-0.1286229 -0.015003,-0.015682 -0.033749,-0.030843 -0.056276,-0.045475 -0.022528,-0.014632 -0.048578,-0.028605 -0.078108,-0.042001 z m 0.3556419,0.4003066 c -0.00696,4.348e-4 -0.014134,0.0013 -0.021528,0.0025 -0.05782,0.010248 -0.1203811,0.047547 -0.1877694,0.112009 -0.067193,0.064289 -0.1072907,0.1251847 -0.1202506,0.182651 -0.012613,0.057469 0.00239,0.1085625 0.045295,0.1533052 0.042795,0.044742 0.093091,0.062003 0.1508896,0.051765 0.058147,-0.01021 0.1208596,-0.047461 0.1880521,-0.1117495 0.067388,-0.064455 0.1073563,-0.1254345 0.1199681,-0.1829074 0.013047,-0.057469 -0.00218,-0.1085648 -0.04473,-0.153305 -0.037466,-0.039149 -0.080805,-0.057255 -0.1299924,-0.05432 z m 0.015222,0.066425 c 0.028008,-0.00177 0.051971,0.00799 0.071933,0.028827 0.026768,0.027982 0.033096,0.06204 0.018919,0.1022039 -0.0137,0.040171 -0.048144,0.086538 -0.1030498,0.1390595 -0.054732,0.052351 -0.1025502,0.084625 -0.1434745,0.096801 -0.040577,0.012198 -0.074238,0.00427 -0.1010059,-0.023718 -0.026616,-0.027806 -0.033008,-0.06177 -0.019135,-0.101943 0.014134,-0.040161 0.048579,-0.086445 0.1033107,-0.1388012 0.054906,-0.052526 0.1026157,-0.084875 0.1431919,-0.09706 0.010225,-0.00307 0.020006,-0.00483 0.029356,-0.00539 z M 15.32132,7.3718454 c -0.05575,-4.348e-4 -0.09877,0.010962 -0.129035,0.034151 -0.03052,0.023207 -0.04592,0.056411 -0.04626,0.099577 0,0.03207 0.0068,0.059987 0.02109,0.083779 0.01436,0.023792 0.03682,0.044324 0.06728,0.061576 -0.02918,0.0099 -0.05154,0.025418 -0.06697,0.046516 -0.01544,0.020856 -0.02331,0.046321 -0.02355,0.076412 -2.17e-4,0.02985 0.0056,0.055648 0.01762,0.077453 0.01196,0.021795 0.03056,0.040589 0.05584,0.056317 l -0.06439,-4.349e-4 v 0.06846 l 0.414441,0.00316 v -0.06846 l -0.234239,-0.00177 c -0.04021,-2.175e-4 -0.07195,-0.01081 -0.09524,-0.031457 -0.02353,-0.020661 -0.03517,-0.048365 -0.0349,-0.083147 0,-0.029357 0.01006,-0.050994 0.02938,-0.064902 0.01914,-0.013916 0.04865,-0.020727 0.08859,-0.02042 l 0.247939,0.00195 v -0.06846 l -0.234239,-0.00177 c -0.04047,-2.174e-4 -0.07235,-0.01081 -0.09562,-0.031457 -0.02329,-0.020661 -0.03477,-0.048615 -0.03449,-0.083891 2.18e-4,-0.028864 0.01006,-0.050251 0.02934,-0.064167 0.01935,-0.013916 0.04889,-0.020726 0.08859,-0.02042 l 0.247916,0.00195 V 7.3739429 Z M 4.3531968,7.472421 4.152663,7.6642451 c 0.021093,0.00855 0.040076,0.018329 0.056929,0.029534 0.016962,0.011372 0.032422,0.024266 0.046252,0.038702 0.029486,0.030835 0.044773,0.063016 0.045773,0.096543 0,0.033519 -0.012395,0.06361 -0.040228,0.090217 C 4.233578,7.9458491 4.20296,7.9578791 4.169516,7.9553991 4.136072,7.9528991 4.104585,7.9362431 4.075077,7.9054081 4.056812,7.8863351 4.041698,7.8662221 4.029587,7.8450221 4.017409,7.8238221 4.008059,7.8010051 4.001515,7.7766001 l -0.054298,0.051913 c 0.01196,0.023996 0.02492,0.046033 0.038598,0.066053 0.013916,0.020206 0.028834,0.038638 0.044861,0.055397 0.046556,0.048662 0.094461,0.075056 0.1437571,0.079115 0.04947,0.00391 0.095657,-0.014743 0.1386037,-0.055834 0.041729,-0.039902 0.062365,-0.084532 0.061887,-0.1339156 0,-0.049386 -0.022029,-0.096383 -0.064649,-0.1409481 -0.00739,-0.0078 -0.015657,-0.014986 -0.024681,-0.02146 -0.00869,-0.00669 -0.018266,-0.012635 -0.028378,-0.017921 l 0.097875,-0.093619 0.1555213,0.1625582 0.045426,-0.043478 z m 0.4821116,0.5424718 -0.04921,0.047073 0.1110744,0.077592 -0.3045409,0.2913289 -0.084393,-0.088213 -0.045469,0.043475 0.219974,0.2299392 0.045469,-0.043475 L 4.6438199,8.4843649 4.9975265,8.145967 4.9458825,8.091944 Z M 15.405278,8.107405 c -0.03553,-2.174e-4 -0.06545,0.00958 -0.08979,0.029645 -0.02431,0.019788 -0.04042,0.047547 -0.04836,0.083259 -0.0078,-0.032377 -0.02228,-0.057367 -0.0431,-0.075046 -0.02109,-0.017679 -0.04693,-0.026635 -0.07752,-0.026868 -0.04391,-4.358e-4 -0.07883,0.015915 -0.10472,0.048773 -0.02616,0.03286 -0.03943,0.077656 -0.03986,0.1343957 -1.52e-4,0.021948 0.0021,0.045405 0.0055,0.070348 0.0037,0.024697 0.0096,0.051278 0.01717,0.079707 l 0.0666,4.353e-4 c -0.0091,-0.028195 -0.01588,-0.054016 -0.02023,-0.077484 -0.0043,-0.023469 -0.0063,-0.045428 -0.0061,-0.065902 0,-0.037496 0.0081,-0.06616 0.0236,-0.086037 0.01522,-0.020113 0.03698,-0.030081 0.06536,-0.029859 0.02762,2.108e-4 0.04878,0.010108 0.06341,0.02971 0.01436,0.019593 0.02153,0.047799 0.02132,0.084551 v 0.067341 l 0.06141,4.341e-4 v -0.064393 c 0,-0.040702 0.0098,-0.072325 0.02849,-0.094875 0.01849,-0.022798 0.04393,-0.034067 0.07648,-0.033826 0.0353,2.173e-4 0.06206,0.012784 0.08037,0.037598 0.01826,0.024563 0.02732,0.060294 0.02694,0.1071621 -1.96e-4,0.026885 -0.0034,0.052635 -0.0098,0.077262 -0.0063,0.024615 -0.01565,0.04723 -0.02792,0.067868 l 0.07217,6.516e-4 c 0.0094,-0.026078 0.01631,-0.051325 0.02087,-0.075706 0.0048,-0.024639 0.0075,-0.048529 0.0076,-0.071705 0,-0.069073 -0.01392,-0.122467 -0.04356,-0.1601899 -0.02955,-0.037719 -0.07158,-0.056791 -0.1261,-0.05721 z M 4.3603292,8.143117 4.3143382,8.187078 4.207809,8.247028 4.240817,8.281517 4.3683306,8.243506 4.4143216,8.199507 Z m 0.8117464,0.2050724 -0.048101,0.046072 c 0.026224,0.013852 0.049013,0.027681 0.068411,0.041556 0.019353,0.013875 0.036227,0.028207 0.050361,0.042995 0.025921,0.027096 0.04025,0.053138 0.043011,0.078151 0.00304,0.025025 -0.00566,0.047324 -0.026094,0.066932 -0.020006,0.019093 -0.042033,0.026721 -0.066192,0.022861 -0.023985,-0.00398 -0.048666,-0.019292 -0.074086,-0.04585 l -0.046556,-0.048704 -0.044403,0.04248 0.044512,0.046516 c 0.028138,0.029412 0.043381,0.05873 0.045709,0.08792 0.00261,0.029202 -0.00783,0.055057 -0.031312,0.077555 -0.025485,0.024393 -0.053428,0.034045 -0.08385,0.029014 -0.030247,-0.0048 -0.061582,-0.024229 -0.093983,-0.058099 -0.018701,-0.019433 -0.034183,-0.040187 -0.046774,-0.062275 -0.012612,-0.022088 -0.021745,-0.044797 -0.027312,-0.068125 l -0.052124,0.049874 c 0.011524,0.0252 0.02405,0.048178 0.037728,0.068909 0.0137,0.021071 0.02853,0.039965 0.044556,0.05673 0.047753,0.049921 0.095374,0.078093 0.1428656,0.084551 0.047491,0.00655 0.090939,-0.00924 0.1303404,-0.046856 0.02566,-0.024557 0.040207,-0.052483 0.043686,-0.083814 0.0037,-0.031155 -0.00413,-0.062299 -0.023311,-0.093431 0.028226,0.017724 0.055972,0.025668 0.083218,0.023832 0.027442,-0.00199 0.05221,-0.013606 0.074303,-0.034747 0.031747,-0.030348 0.045469,-0.066323 0.041164,-0.1079377 -0.00413,-0.04179 -0.025833,-0.083182 -0.065061,-0.1241822 -0.015222,-0.015876 -0.032792,-0.031459 -0.052884,-0.046739 -0.019788,-0.015092 -0.042512,-0.030173 -0.067823,-0.045218 z m 10.2347454,0.232829 c -0.03526,-2.176e-4 -0.06519,0.00959 -0.08976,0.029634 -0.02457,0.019783 -0.04118,0.047675 -0.04984,0.083627 -0.0076,-0.031881 -0.0224,-0.056777 -0.04423,-0.074712 -0.02181,-0.018181 -0.04849,-0.027411 -0.08006,-0.027634 -0.04416,-4.352e-4 -0.0792,0.015092 -0.105095,0.046224 -0.0259,0.031132 -0.03903,0.074209 -0.03945,0.1292164 0,0.054764 0.01196,0.098005 0.03748,0.1297733 0.02542,0.031518 0.06019,0.047476 0.104358,0.047803 0.03158,2.165e-4 0.05843,-0.00842 0.0805,-0.026054 0.02209,-0.01783 0.0372,-0.042749 0.04533,-0.074747 0.0081,0.036081 0.02431,0.064323 0.04858,0.084738 0.02426,0.020415 0.05402,0.030746 0.08931,0.031015 0.05351,4.352e-4 0.09472,-0.015537 0.123577,-0.047885 0.02887,-0.032594 0.04353,-0.079345 0.04401,-0.1402816 0,-0.06093 -0.01348,-0.1077974 -0.04186,-0.1405753 -0.02838,-0.033027 -0.06932,-0.049734 -0.12286,-0.050143 z m 0,0.074712 c 0.03305,2.176e-4 0.05913,0.010763 0.07821,0.031342 0.01892,0.020614 0.02809,0.048657 0.02783,0.084176 0,0.035531 -0.01006,0.063445 -0.02912,0.083779 -0.01914,0.020099 -0.04538,0.030009 -0.07868,0.029751 -0.03332,-2.176e-4 -0.05938,-0.010529 -0.07824,-0.030933 -0.01892,-0.020614 -0.02809,-0.048704 -0.02782,-0.084223 0,-0.035765 0.01006,-0.063691 0.02912,-0.083779 0.01914,-0.020333 0.04536,-0.030371 0.07867,-0.030114 z m -0.256874,0.010295 c 0.02862,2.176e-4 0.05083,0.00948 0.06674,0.027856 0.01588,0.018134 0.02375,0.043241 0.0235,0.075297 0,0.032313 -0.0084,0.057408 -0.02464,0.075308 -0.01609,0.017631 -0.03855,0.026335 -0.06717,0.026124 -0.02862,-2.176e-4 -0.05088,-0.00924 -0.06678,-0.027131 -0.01588,-0.018134 -0.02373,-0.043358 -0.02346,-0.075671 0,-0.032068 0.0084,-0.057046 0.02459,-0.074934 0.01609,-0.018134 0.0386,-0.027084 0.06721,-0.026862 z m -9.7374357,0.112711 -0.2994525,0.2865194 0.047318,0.04943 0.1692642,-0.1618902 c 0.029052,-0.027798 0.059125,-0.04241 0.090198,-0.043814 0.03127,-0.00152 0.058929,0.010178 0.082957,0.035344 0.020223,0.021234 0.028356,0.043557 0.02418,0.067014 -0.00413,0.023293 -0.02044,0.048751 -0.04934,0.076373 L 5.2985004,9.2590747 5.345796,9.308551 5.5150602,9.1466233 c 0.029225,-0.027961 0.059408,-0.042632 0.090503,-0.044036 0.031096,-0.00129 0.058843,0.010646 0.083218,0.036116 0.020006,0.02086 0.027834,0.04303 0.023658,0.066499 -0.00413,0.023457 -0.020657,0.048927 -0.049339,0.076373 l -0.1791577,0.1713626 0.047318,0.049476 0.1807674,-0.1729179 c 0.040273,-0.038549 0.063214,-0.076677 0.068759,-0.1144192 0.00566,-0.037906 -0.00631,-0.072454 -0.036206,-0.1036441 -0.022158,-0.023165 -0.046665,-0.038315 -0.073564,-0.045358 -0.026877,-0.00702 -0.057255,-0.00608 -0.091134,0.00269 0.014134,-0.027435 0.019135,-0.054098 0.015657,-0.08 C 5.5920697,8.963038 5.5798827,8.939312 5.5591597,8.917563 5.5385027,8.895989 5.5163867,8.881529 5.4926407,8.874194 5.4688947,8.866824 5.4424307,8.866354 5.4133357,8.872674 l 0.046556,-0.044516 z m 10.0524787,0.30746 v 0.078069 l 0.06364,4.34e-4 0.118184,0.031237 v -0.047733 l -0.117966,-0.061573 z m -0.183398,0.2191372 c -0.09324,-6.517e-4 -0.164416,0.015642 -0.213516,0.049067 -0.04934,0.033179 -0.07425,0.08172 -0.07473,0.1456094 0,0.055747 0.01631,0.1005438 0.05041,0.1343595 0.03403,0.033811 0.07943,0.050927 0.136167,0.051372 0.05797,4.34e-4 0.103855,-0.015268 0.137647,-0.047078 0.03355,-0.032056 0.05054,-0.07573 0.05095,-0.1309924 2.17e-4,-0.026639 -0.0051,-0.050962 -0.01653,-0.073015 -0.01112,-0.022042 -0.02733,-0.040292 -0.04842,-0.054764 0.06755,0.00421 0.117902,0.019526 0.150998,0.04592 0.03286,0.026148 0.04908,0.063902 0.0487,0.1132376 -1.52e-4,0.018508 -0.0026,0.037379 -0.0075,0.056578 -0.0047,0.019198 -0.01175,0.038116 -0.02087,0.0568 l 0.06809,4.34e-4 c 0.0076,-0.020661 0.01327,-0.040585 0.01717,-0.059807 0.0039,-0.019199 0.0059,-0.038198 0.0059,-0.056952 0,-0.06981 -0.02494,-0.1255171 -0.07643,-0.1671081 -0.05172,-0.041837 -0.121142,-0.063094 -0.208231,-0.063761 z m -9.3585047,0.00714 -0.2994741,0.2865181 0.047339,0.04943 0.1692641,-0.1618914 c 0.029052,-0.027797 0.059125,-0.04241 0.090198,-0.043814 0.03127,-0.00152 0.058929,0.010178 0.082957,0.035344 0.020222,0.021234 0.028356,0.043556 0.02418,0.067014 -0.00391,0.023293 -0.02044,0.048751 -0.049339,0.076373 L 5.8090541,9.7928084 5.8563719,9.842273 6.0256362,9.6803454 c 0.029225,-0.027961 0.059408,-0.042632 0.090503,-0.044036 0.031096,-0.00129 0.058798,0.010646 0.083175,0.036116 0.020006,0.02086 0.027877,0.04303 0.023681,0.066487 -0.00413,0.023469 -0.020658,0.048926 -0.049318,0.076373 l -0.1791584,0.1713626 0.047318,0.04946 0.1807675,-0.1729166 c 0.040272,-0.038549 0.063192,-0.076677 0.068759,-0.1144192 0.00566,-0.037917 -0.00631,-0.072454 -0.036206,-0.1036441 -0.022158,-0.023165 -0.046708,-0.038315 -0.073586,-0.04537 -0.026899,-0.00702 -0.057233,-0.00608 -0.091112,0.00269 0.014134,-0.027435 0.019135,-0.054098 0.015657,-0.08 -0.00347,-0.025727 -0.015657,-0.049453 -0.036379,-0.071202 -0.020658,-0.021574 -0.042816,-0.036034 -0.066562,-0.043369 -0.023746,-0.00737 -0.050167,-0.00784 -0.079262,-0.00152 l 0.046557,-0.044511 z m 9.2590427,0.079848 c 0.03997,2.176e-4 0.07135,0.010412 0.09413,0.030301 0.02279,0.019655 0.03408,0.046259 0.03383,0.079824 0,0.033542 -0.01196,0.060111 -0.03505,0.079661 -0.02309,0.019304 -0.05462,0.028839 -0.09459,0.028535 -0.03971,-2.176e-4 -0.07096,-0.010295 -0.09377,-0.029974 -0.02304,-0.019924 -0.03441,-0.046633 -0.03414,-0.080187 0,-0.033542 0.01196,-0.059982 0.03538,-0.079298 0.02307,-0.019573 0.0545,-0.029166 0.0942,-0.028862 z m 0.179136,0.3854275 v 0.078818 l -0.360056,-0.00269 v 0.093992 l 0.348269,0.2324549 0.07217,4.36e-4 0.0021,-0.2493679 0.130211,8.7e-4 v -0.074337 l -0.130254,-0.00111 v -0.078818 z m -0.29606,0.1509389 0.294907,0.0022 -0.0021,0.188718 z m 0.421682,0.359934 v 0.12211 l -0.48957,-0.0037 v 0.07475 l 0.02564,0.132326 0.06809,4.34e-4 -0.02564,-0.133064 0.421466,0.0033 v 0.122111 l 0.06286,4.36e-4 0.0025,-0.318232 z m -8.7249163,0.119557 -0.051732,0.04951 2.0025108,2.093255 0.051774,-0.04951 z m 8.5163363,0.973898 -0.01565,2.043115 0.0358,2.18e-4 v 3.6e-5 l 0.03581,2.18e-4 0.01565,-2.043116 z M 5.2471393,12.608706 c -0.054755,4.9e-5 -0.097918,0.01292 -0.1294705,0.0386 -0.03127,0.02569 -0.046883,0.0606 -0.046883,0.104755 4.35e-5,0.03158 0.00891,0.05836 0.026725,0.08029 0.018048,0.02194 0.043077,0.03684 0.075152,0.04469 -0.036009,0.0084 -0.064126,0.02485 -0.084328,0.04929 -0.020222,0.02444 -0.030225,0.05431 -0.030225,0.08958 4.34e-5,0.05352 0.016309,0.0946 0.048949,0.123184 0.032835,0.02858 0.079718,0.04283 0.1406476,0.04277 0.06093,-5.8e-5 0.1076605,-0.01441 0.1402127,-0.04306 0.032726,-0.02864 0.049101,-0.06973 0.049101,-0.123258 -4.35e-5,-0.03527 -0.010225,-0.06511 -0.030465,-0.08951 -0.020006,-0.0244 -0.048014,-0.04078 -0.084023,-0.04915 0.031814,-0.0078 0.056602,-0.02287 0.074347,-0.04484 0.017831,-0.02197 0.02692,-0.04875 0.02692,-0.08033 -4.35e-5,-0.04415 -0.015657,-0.07903 -0.0471,-0.10465 -0.031356,-0.02562 -0.074543,-0.03842 -0.1295576,-0.03837 z m -1.2151188,0.0011 c -0.055754,5.2e-5 -0.1003975,0.01727 -0.1339067,0.05159 -0.033466,0.03431 -0.050188,0.07984 -0.050188,0.13658 6.53e-5,0.05797 0.016091,0.103726 0.048231,0.137246 0.032336,0.03327 0.076173,0.04986 0.1314277,0.0498 0.026638,-2.7e-5 0.050927,-0.0057 0.072868,-0.01709 0.021941,-0.01135 0.040055,-0.02766 0.054341,-0.04888 -0.0037,0.0676 -0.018484,0.118052 -0.044621,0.151381 -0.025854,0.03307 -0.063474,0.04965 -0.112814,0.0497 -0.018484,1.7e-5 -0.03738,-0.0023 -0.056625,-0.007 -0.019135,-0.0047 -0.038271,-0.01147 -0.057015,-0.02029 v 0.06809 h 6.53e-5 c 0.020657,0.0075 0.040751,0.01289 0.059995,0.01658 0.019353,0.0037 0.038229,0.0055 0.056972,0.0055 0.069824,-6.6e-5 0.1252956,-0.02601 0.1664591,-0.07785 0.041424,-0.05208 0.06206,-0.121692 0.06193,-0.208775 -8.7e-5,-0.09324 -0.016962,-0.164291 -0.050884,-0.213102 -0.033596,-0.04907 -0.082327,-0.07355 -0.1462354,-0.07348 z m 0.7818904,0.0092 -0.074738,7.3e-5 -0.1320799,0.02676 v 0.06809 l 0.1328193,-0.02676 v 0.421469 l -0.1220989,1.11e-4 6.52e-5,0.06291 0.3182401,-2.17e-4 v -0.06291 l -0.1221207,1.11e-4 z m -1.135684,0.0011 -0.093983,1.11e-4 -0.2294547,0.350238 v 0.07216 l 0.249395,-2.18e-4 1.957e-4,0.130253 0.074368,-7.4e-5 -1.74e-4,-0.130254 0.078804,-7.3e-5 v -0.06217 l -0.078804,7.6e-5 z m -0.5531532,4.35e-4 -0.07476,7.5e-5 -0.1320583,0.02679 v 0.06809 l 0.1327975,-0.02679 v 0.421471 l -0.1221206,1.11e-4 8.69e-5,0.06291 0.3182186,-2.18e-4 v -0.06291 l -0.1220991,1.11e-4 z m 2.1221527,0.04722 c 0.032075,-3e-5 0.057081,0.008 0.075107,0.02398 0.018266,0.01603 0.027464,0.03831 0.027464,0.06693 2.17e-5,0.02862 -0.00914,0.05096 -0.027312,0.06701 -0.018048,0.01604 -0.043033,0.0241 -0.075107,0.02412 -0.032314,2.9e-5 -0.057473,-0.008 -0.0755,-0.02398 -0.017831,-0.01603 -0.026702,-0.03833 -0.026702,-0.06693 -4.35e-5,-0.02862 0.00891,-0.05096 0.02655,-0.06701 0.018048,-0.01607 0.043186,-0.0241 0.0755,-0.02412 z m -1.2152059,0.0011 c 0.033552,-3.2e-5 0.060082,0.01158 0.079609,0.03471 0.019788,0.02293 0.02966,0.05424 0.02966,0.09396 4.35e-5,0.03997 -0.00978,0.07144 -0.029486,0.09439 -0.019571,0.02295 -0.046012,0.03444 -0.079566,0.03449 -0.033531,3.3e-5 -0.060169,-0.01147 -0.079913,-0.03434 -0.019571,-0.02293 -0.029356,-0.05435 -0.029356,-0.09432 -2.16e-5,-0.03972 0.00978,-0.07106 0.02916,-0.09403 0.019788,-0.02321 0.046339,-0.03482 0.079892,-0.03485 z m -0.4281185,0.01631 v 0.294918 l -0.1887045,1.85e-4 z m 3.1623971,0.05991 c -0.032075,3.1e-5 -0.059973,0.0074 -0.083633,0.0219 -0.023658,0.01457 -0.043989,0.03718 -0.060973,0.06779 l -4.34e-5,-3.6e-5 c -0.010225,-0.0291 -0.025833,-0.05126 -0.047078,-0.06653 -0.020875,-0.01527 -0.046491,-0.0229 -0.076587,-0.02287 -0.029856,2.8e-5 -0.055645,0.0061 -0.077348,0.0182 -0.021745,0.01211 -0.040272,0.03086 -0.055797,0.05629 v -0.06438 l -0.068454,3.6e-5 v 0.414439 l 0.068454,-3.7e-5 v -0.234157 c -4.36e-5,-0.04021 0.010225,-0.07206 0.030639,-0.0955 0.02044,-0.0237 0.048056,-0.03557 0.082849,-0.0356 0.029356,-2.8e-5 0.051079,0.0096 0.06517,0.02879 0.014134,0.01898 0.021093,0.04847 0.021093,0.08845 v 0.247922 l 0.068454,-7.3e-5 v -0.234233 c -4.35e-5,-0.04046 0.010225,-0.07242 0.030639,-0.09588 0.02044,-0.02345 0.048317,-0.03519 0.083589,-0.03523 0.028877,-2.5e-5 0.050319,0.0096 0.064387,0.02883 0.014134,0.01922 0.02131,0.04869 0.02131,0.0884 v 0.247924 l 0.068454,-3.8e-5 v -0.250143 c -6.52e-5,-0.05575 -0.011743,-0.09866 -0.03527,-0.128735 -0.023463,-0.03031 -0.056775,-0.04548 -0.099941,-0.04544 z m -0.7385959,6.53e-4 c -0.032075,2.9e-5 -0.059952,0.0074 -0.083631,0.0219 -0.023658,0.01457 -0.043991,0.03719 -0.060973,0.0678 l -4.35e-5,-3.8e-5 c -0.010225,-0.0291 -0.02579,-0.05129 -0.047035,-0.06657 -0.021093,-0.01527 -0.046535,-0.0229 -0.07663,-0.02287 -0.029855,2.9e-5 -0.055645,0.0061 -0.077348,0.0182 -0.021745,0.01211 -0.040273,0.0309 -0.055797,0.05632 v -0.06439 l -0.068454,3.7e-5 v 0.414441 l 0.068454,-3.8e-5 -2.175e-4,-0.234231 c -4.36e-5,-0.04021 0.010225,-0.07206 0.030596,-0.09551 0.02044,-0.0237 0.048078,-0.03557 0.08285,-0.0356 0.029356,-2.8e-5 0.051079,0.0096 0.06517,0.02879 0.014134,0.01898 0.021093,0.04847 0.021093,0.08845 l 2.173e-4,0.247925 0.068475,-7.4e-5 v -0.234234 c -2.18e-5,-0.04046 0.010225,-0.07242 0.030639,-0.09588 0.02044,-0.02344 0.048317,-0.03519 0.083589,-0.03523 0.028877,-2.7e-5 0.050361,0.0096 0.064432,0.02883 0.014134,0.01922 0.021093,0.04868 0.021093,0.0884 l 2.175e-4,0.247924 0.068454,-3.6e-5 v -0.250145 c -4.34e-5,-0.05575 -0.011743,-0.0987 -0.03527,-0.128773 -0.023463,-0.03031 -0.056777,-0.04544 -0.09994,-0.04541 z m 2.5340495,0.158893 -0.9127311,8.7e-4 v 0.0716 l 0.9127311,-8.7e-4 z m -3.3143088,0.0039 c 0.035771,-3.5e-5 0.063801,0.0095 0.084044,0.02842 0.02044,0.01898 0.030769,0.0451 0.030769,0.07841 4.35e-5,0.03305 -0.010225,0.05922 -0.030639,0.07848 -0.02044,0.01901 -0.04847,0.02853 -0.08398,0.02857 -0.035531,3.2e-5 -0.063518,-0.0095 -0.084001,-0.02842 -0.020223,-0.01898 -0.030422,-0.0451 -0.030422,-0.07841 -2.18e-5,-0.03331 0.010003,-0.05947 0.03027,-0.07848 0.02044,-0.01901 0.048426,-0.02853 0.083959,-0.02857 z m -3.0950523,0.0021 -0.9126876,8.7e-4 v 0.0716 l 0.9127311,-8.71e-4 v -0.03581 h -4.35e-5 z m 2.2973967,0.166959 -0.078065,7.4e-5 v 0.06364 l -0.030226,0.118451 0.047731,-3.8e-5 0.06056,-0.118487 z" style="opacity:1"/>
    </g>
</svg>
