<?xml version="1.0" encoding="UTF-8" standalone="no"?>
<svg xmlns:dc="http://purl.org/dc/elements/1.1/" xmlns:cc="http://creativecommons.org/ns#" xmlns:rdf="http://www.w3.org/1999/02/22-rdf-syntax-ns#" xmlns:svg="http://www.w3.org/2000/svg" xmlns="http://www.w3.org/2000/svg" xmlns:sodipodi="http://sodipodi.sourceforge.net/DTD/sodipodi-0.dtd" xmlns:inkscape="http://www.inkscape.org/namespaces/inkscape" id="svg1" width="13.8222" height="14.345885" version="1.1" sodipodi:docname="object-ungroup-pop-selection-symbolic.svg" inkscape:version="0.92.4 (5da689c313, 2019-01-14)">
<metadata id="metadata31">
<rdf:RDF>
<cc:Work rdf:about="">
<dc:format>image/svg+xml</dc:format>
<dc:type rdf:resource="http://purl.org/dc/dcmitype/StillImage" />
</cc:Work>
</rdf:RDF>
</metadata>
<sodipodi:namedview id="base" showgrid="true" inkscape:zoom="16.45071" inkscape:cx="4.905107" inkscape:cy="6.929792" inkscape:window-width="1280" inkscape:window-height="960" inkscape:window-x="0" inkscape:window-y="27" inkscape:window-maximized="1" inkscape:current-layer="svg1">
<inkscape:grid id="GridFromPre046Settings" type="xygrid" originx="0pt" originy="0pt" spacingx="1pt" spacingy="1pt" color="#3f3fff" empcolor="#3f3fff" opacity="0.15" empopacity="0.38" empspacing="5" />
</sodipodi:namedview>
<defs id="defs3">
<linearGradient id="linearGradient5704">
<stop id="stop5706" offset="0" style="stop-color:#5a5a5a;stop-opacity:1" />
<stop id="stop5708" offset="1" style="stop-color:#000000;stop-opacity:1" />
</linearGradient>
<linearGradient id="linearGradient24464">
<stop id="stop24466" offset="0" style="stop-color:#499204;stop-opacity:1" />
<stop id="stop24468" offset="1" style="stop-color:#a7e26e;stop-opacity:1" />
</linearGradient>
<linearGradient id="linearGradient5740">
<stop id="stop5742" offset="0" style="stop-color:#ffffff;stop-opacity:1" />
<stop id="stop5744" offset="1" style="stop-color:#98b6d3;stop-opacity:1" />
</linearGradient>
</defs>
<g id="object-ungroup-pop-selection" inkscape:label="#object-ungroup-pop-selection" transform="translate(-355.5,-252.15412)">
<g id="g6068-8">
<path style="color:#000000;font-style:normal;font-variant:normal;font-weight:normal;font-stretch:normal;font-size:medium;line-height:normal;font-family:sans-serif;font-variant-ligatures:normal;font-variant-position:normal;font-variant-caps:normal;font-variant-numeric:normal;font-variant-alternates:normal;font-feature-settings:normal;text-indent:0;text-align:start;text-decoration:none;text-decoration-line:none;text-decoration-style:solid;text-decoration-color:#000000;letter-spacing:normal;word-spacing:normal;text-transform:none;writing-mode:lr-tb;direction:ltr;text-orientation:mixed;dominant-baseline:auto;baseline-shift:baseline;text-anchor:start;white-space:normal;shape-padding:0;clip-rule:nonzero;display:inline;overflow:visible;visibility:visible;opacity:0.36;isolation:auto;mix-blend-mode:normal;color-interpolation:sRGB;color-interpolation-filters:linearRGB;solid-color:#000000;solid-opacity:1;vector-effect:none;fill-opacity:1;fill-rule:nonzero;stroke:none;stroke-width:1;stroke-linecap:butt;stroke-linejoin:round;stroke-miterlimit:0;stroke-dasharray:none;stroke-dashoffset:0;stroke-opacity:1;color-rendering:auto;image-rendering:auto;shape-rendering:auto;text-rendering:auto;enable-background:accumulate" d="m 356,258.5 a 0.50005,0.50005 0 0 0 -0.5,0.5 v 7 a 0.50005,0.50005 0 0 0 0.5,0.5 h 9 a 0.50005,0.50005 0 0 0 0.5,-0.5 v -7 a 0.50005,0.50005 0 0 0 -0.5,-0.5 z m 0.5,1 h 8 v 6 h -8 z" id="rect9496-1" inkscape:connector-curvature="0" />
</g>
<path style="color:#000000;fill:#000000;fill-rule:evenodd;stroke-width:1.0000006" d="M 2.822266 0 L 2.822266 2 L 4.822266 2 L 4.822266 0 L 2.822266 0 z M 11.82227 0 L 11.82227 2 L 13.82227 2 L 13.82227 0 L 11.82227 0 z M 8.326172 1 C 5.845172 1 3.822266 3.023712 3.822266 5.507812 C 3.822266 7.991812 5.845172 10.01562 8.326172 10.01562 C 10.80727 10.01562 12.82812 7.991813 12.82812 5.507812 C 12.82812 3.023712 10.80727 1 8.326172 1 z M 8.326172 2 C 10.26707 2 11.83008 3.564513 11.83008 5.507812 C 11.83008 7.451012 10.26707 9.017578 8.326172 9.017578 C 6.385372 9.017578 4.820312 7.451013 4.820312 5.507812 C 4.820312 3.564513 6.385372 2 8.326172 2 z M 11.5 8.845703 L 11.5 10.8457 L 13.5 10.8457 L 13.5 8.845703 L 11.5 8.845703 z M 2.822266 9 L 2.822266 11 L 4.822266 11 L 4.822266 9 L 2.822266 9 z " transform="translate(355.5,252.1541)" id="use8598-1" />
<g id="use10425-1" transform="matrix(1,0,0,1,-0.0348992,-0.0284392)" />
</g>
</svg>
